Template: Pathway and gene set enrichment analysis
…
The major aims of this exercise is to get you used to reading online tool documentation, playing with different parameters of the relevant functions and interpreting outputs.

1. Load libraries.

library(dplyr)
library(tidyverse)
library(fgsea)
library(msigdbr)

2. Read in output table of differentially expressed genes from DESeq2.

all_genes_df

# A tibble: 19,053 × 8
    ...1 gene_id          baseMean log2FoldChange  lfcSE   stat  pvalue     padj
   <dbl> <chr>               <dbl>          <dbl>  <dbl>  <dbl>   <dbl>    <dbl>
 1     1 ENSMUSG00000098…  478.           -0.270  0.0923 -2.93  3.39e-3  0.00905
 2     2 ENSMUSG00000033…  690.           -0.160  0.0798 -2.01  4.46e-2  0.0898 
 3     3 ENSMUSG00000025… 3003.           -0.219  0.0608 -3.61  3.10e-4  0.00101
 4     4 ENSMUSG00000033…  889.            0.0555 0.0782  0.710 4.78e-1  0.620  
 5     5 ENSMUSG00000062…   18.4          -0.497  0.434  -1.15  2.52e-1  0.383  
 6     6 ENSMUSG00000033… 1106.           -0.201  0.0718 -2.80  5.10e-3  0.0131 
 7     7 ENSMUSG00000025…    1.78          2.11   1.63    1.30  1.95e-1  0.312  
 8     8 ENSMUSG00000025… 3436.           -0.0267 0.0633 -0.422 6.73e-1  0.782  
 9     9 ENSMUSG00000090…   28.3           0.274  0.347   0.788 4.31e-1  0.575  
10    10 ENSMUSG00000033…    0.503         0.765  2.60    0.295 7.68e-1 NA      
# ℹ 19,043 more rows

3. Create input gene list.

Create all_genes_tested_df object containing table of all genes tested in the differential expression analysis.

all_genes_tested_df

# A tibble: 19,052 × 8
    ...1 gene_id          baseMean log2FoldChange  lfcSE   stat  pvalue     padj
   <dbl> <chr>               <dbl>          <dbl>  <dbl>  <dbl>   <dbl>    <dbl>
 1     1 ENSMUSG00000098…  478.           -0.270  0.0923 -2.93  3.39e-3  0.00905
 2     2 ENSMUSG00000033…  690.           -0.160  0.0798 -2.01  4.46e-2  0.0898 
 3     3 ENSMUSG00000025… 3003.           -0.219  0.0608 -3.61  3.10e-4  0.00101
 4     4 ENSMUSG00000033…  889.            0.0555 0.0782  0.710 4.78e-1  0.620  
 5     5 ENSMUSG00000062…   18.4          -0.497  0.434  -1.15  2.52e-1  0.383  
 6     6 ENSMUSG00000033… 1106.           -0.201  0.0718 -2.80  5.10e-3  0.0131 
 7     7 ENSMUSG00000025…    1.78          2.11   1.63    1.30  1.95e-1  0.312  
 8     8 ENSMUSG00000025… 3436.           -0.0267 0.0633 -0.422 6.73e-1  0.782  
 9     9 ENSMUSG00000090…   28.3           0.274  0.347   0.788 4.31e-1  0.575  
10    10 ENSMUSG00000033…    0.503         0.765  2.60    0.295 7.68e-1 NA      
# ℹ 19,042 more rows
…
Convert result to tibble and arrange by normalised enrichment score

fgseaResTidy <- fgseaRes %>% 
as_tibble() %>% 
  arrange(desc(NES))
  fgseaResTidy

# A tibble: 50 × 8
   pathway                    pval    padj log2err    ES   NES  size leadingEdge
   <chr>                     <dbl>   <dbl>   <dbl> <dbl> <dbl> <int> <list>     
 1 HALLMARK_EPITHELIAL_ME… 2.84e-7 5.65e-6   0.675 0.588  1.86   145 <chr [52]> 
 2 HALLMARK_IL2_STAT5_SIG… 3.39e-7 5.65e-6   0.675 0.552  1.81   196 <chr [76]> 
 3 HALLMARK_UV_RESPONSE_DN 1.75e-3 1.25e-2   0.455 0.489  1.54   129 <chr [40]> 
 4 HALLMARK_TGF_BETA_SIGN… 4.19e-2 2.09e-1   0.271 0.507  1.41    51 <chr [17]> 
 5 HALLMARK_PANCREAS_BETA… 7.62e-2 3.17e-1   0.207 0.619  1.38    17 <chr [5]>  
 6 HALLMARK_ESTROGEN_RESP… 2.37e-2 1.31e-1   0.352 0.422  1.36   166 <chr [42]> 
 7 HALLMARK_ANDROGEN_RESP… 5.79e-2 2.63e-1   0.219 0.436  1.32    94 <chr [17]> 
 8 HALLMARK_KRAS_SIGNALIN… 9.52e-2 3.32e-1   0.166 0.401  1.25   115 <chr [36]> 
 9 HALLMARK_APICAL_JUNCTI… 1.05e-1 3.32e-1   0.154 0.376  1.21   161 <chr [45]> 
10 HALLMARK_INFLAMMATORY_… 1.04e-1 3.32e-1   0.154 0.373  1.21   173 <chr [46]> 
# ℹ 40 more rows
…
