Template: Introduction to the tidyverse
…
Print the value of iris_raw.

spec(iris_raw)

cols(
  sepal_length = col_double(),
  sepal_width = col_double(),
  petal_length = col_double(),
  petal_width = col_double(),
  species = col_character()
)

iris_raw

# A tibble: 150 × 5
   sepal_length sepal_width petal_length petal_width species    
          <dbl>       <dbl>        <dbl>       <dbl> <chr>      
 1          5.1         3.5          1.4         0.2 Iris-setosa
 2          4.9         3            1.4         0.2 Iris-setosa
 3          4.7         3.2          1.3         0.2 Iris-setosa
 4          4.6         3.1          1.5         0.2 Iris-setosa
 5          5           3.6          1.4         0.2 Iris-setosa
 6          5.4         3.9          1.7         0.4 Iris-setosa
 7          4.6         3.4          1.4         0.3 Iris-setosa
 8          5           3.4          1.5         0.2 Iris-setosa
 9          4.4         2.9          1.4         0.2 Iris-setosa
10          4.9         3.1          1.5         0.1 Iris-setosa
# ℹ 140 more rows
…
Demo

Subset observations in a table

iris %>%
    filter(Sepal.Length > mean(Sepal.Length) & Sepal.Width > mean(Sepal.Width)) %>%
    as_tibble()

# A tibble: 25 × 5
   Sepal.Length Sepal.Width Petal.Length Petal.Width Species   
          <dbl>       <dbl>        <dbl>       <dbl> <fct>     
 1          7           3.2          4.7         1.4 versicolor
 2          6.4         3.2          4.5         1.5 versicolor
 3          6.9         3.1          4.9         1.5 versicolor
 4          6.3         3.3          4.7         1.6 versicolor
 5          6.7         3.1          4.4         1.4 versicolor
 6          5.9         3.2          4.8         1.8 versicolor
 7          6           3.4          4.5         1.6 versicolor
 8          6.7         3.1          4.7         1.5 versicolor
 9          6.3         3.3          6           2.5 virginica 
10          7.2         3.6          6.1         2.5 virginica 
# ℹ 15 more rows
…
Demo

Sort observations

iris %>%
    arrange(Species, desc(Sepal.Length)) %>%
    as_tibble()

# A tibble: 150 × 5
   Sepal.Length Sepal.Width Petal.Length Petal.Width Species
          <dbl>       <dbl>        <dbl>       <dbl> <fct>  
 1          5.8         4            1.2         0.2 setosa 
 2          5.7         4.4          1.5         0.4 setosa 
 3          5.7         3.8          1.7         0.3 setosa 
 4          5.5         4.2          1.4         0.2 setosa 
 5          5.5         3.5          1.3         0.2 setosa 
 6          5.4         3.9          1.7         0.4 setosa 
 7          5.4         3.7          1.5         0.2 setosa 
 8          5.4         3.9          1.3         0.4 setosa 
 9          5.4         3.4          1.7         0.2 setosa 
10          5.4         3.4          1.5         0.4 setosa 
# ℹ 140 more rows
…
Exercise

Manipulate data

Exercise 3

Let’s make the silly assumption that iris sepals are rectangular in shape.

Using iris_raw, compute a new column named sepal_area, which is the product of sepal_length and sepal_width.

iris_raw %>% mutate(
  sepal_area = sepal_length*sepal_width
)

# A tibble: 150 × 6
   sepal_length sepal_width petal_length petal_width species     sepal_area
          <dbl>       <dbl>        <dbl>       <dbl> <chr>            <dbl>
 1          5.1         3.5          1.4         0.2 Iris-setosa       17.8
 2          4.9         3            1.4         0.2 Iris-setosa       14.7
 3          4.7         3.2          1.3         0.2 Iris-setosa       15.0
 4          4.6         3.1          1.5         0.2 Iris-setosa       14.3
 5          5           3.6          1.4         0.2 Iris-setosa       18  
 6          5.4         3.9          1.7         0.4 Iris-setosa       21.1
 7          4.6         3.4          1.4         0.3 Iris-setosa       15.6
 8          5           3.4          1.5         0.2 Iris-setosa       17  
 9          4.4         2.9          1.4         0.2 Iris-setosa       12.8
10          4.9         3.1          1.5         0.1 Iris-setosa       15.2
# ℹ 140 more rows

Subset the result to the columns named species and sepal_area.

# Copy the code chunk above and extend with more pipes
iris_raw %>% mutate(
  sepal_area = sepal_length*sepal_width) %>% 
  select(species, sepal_area)

# A tibble: 150 × 2
   species     sepal_area
   <chr>            <dbl>
 1 Iris-setosa       17.8
 2 Iris-setosa       14.7
 3 Iris-setosa       15.0
 4 Iris-setosa       14.3
 5 Iris-setosa       18  
 6 Iris-setosa       21.1
 7 Iris-setosa       15.6
 8 Iris-setosa       17  
 9 Iris-setosa       12.8
10 Iris-setosa       15.2
# ℹ 140 more rows
…
the species

the variable measured

the value

Hint: you want to pivot all the columns that start are numeric.

iris_long <- iris_raw %>% 
pivot_longer(tidyselect::where(base::is.numeric), names_to = "variable")

iris_long

# A tibble: 600 × 3
   species     variable     value
   <chr>       <chr>        <dbl>
 1 Iris-setosa sepal_length   5.1
 2 Iris-setosa sepal_width    3.5
 3 Iris-setosa petal_length   1.4
 4 Iris-setosa petal_width    0.2
 5 Iris-setosa sepal_length   4.9
 6 Iris-setosa sepal_width    3  
 7 Iris-setosa petal_length   1.4
 8 Iris-setosa petal_width    0.2
 9 Iris-setosa sepal_length   4.7
10 Iris-setosa sepal_width    3.2
# ℹ 590 more rows

What information have we lost in the process? What could we do to remedy the issue?

Answer: The identity of each observation is lost; e.g., we cannot tell which value of sepal_length is associated with which value of sepal_width.

# Copy the code chunk above and refine to address the issue
iris_long2 <- iris_raw %>% 
  mutate("ID"=seq(1,nrow(iris_raw)),
         "Species.ID"=paste0(species,ID)) %>% 
  select(!c(ID)) %>% 
pivot_longer(tidyselect::where(base::is.numeric))

iris_long2

# A tibble: 600 × 4
   species     Species.ID   name         value
   <chr>       <chr>        <chr>        <dbl>
 1 Iris-setosa Iris-setosa1 sepal_length   5.1
 2 Iris-setosa Iris-setosa1 sepal_width    3.5
 3 Iris-setosa Iris-setosa1 petal_length   1.4
 4 Iris-setosa Iris-setosa1 petal_width    0.2
 5 Iris-setosa Iris-setosa2 sepal_length   4.9
 6 Iris-setosa Iris-setosa2 sepal_width    3  
 7 Iris-setosa Iris-setosa2 petal_length   1.4
 8 Iris-setosa Iris-setosa2 petal_width    0.2
 9 Iris-setosa Iris-setosa3 sepal_length   4.7
10 Iris-setosa Iris-setosa3 sepal_width    3.2
# ℹ 590 more rows

Exercise

Pivot data from long to wide

Reshape the tidy format of the iris data set into the original wide format.

Hint: you will only be able to restore the wide format if you kept track of the identity of each flower in the long format.

iris_long2 %>%
  pivot_wider(id_cols = c(Species.ID, species)) %>% 
  select(-Species.ID)

# A tibble: 150 × 5
   species     sepal_length sepal_width petal_length petal_width
   <chr>              <dbl>       <dbl>        <dbl>       <dbl>
 1 Iris-setosa          5.1         3.5          1.4         0.2
 2 Iris-setosa          4.9         3            1.4         0.2
 3 Iris-setosa          4.7         3.2          1.3         0.2
 4 Iris-setosa          4.6         3.1          1.5         0.2
 5 Iris-setosa          5           3.6          1.4         0.2
 6 Iris-setosa          5.4         3.9          1.7         0.4
 7 Iris-setosa          4.6         3.4          1.4         0.3
 8 Iris-setosa          5           3.4          1.5         0.2
 9 Iris-setosa          4.4         2.9          1.4         0.2
10 Iris-setosa          4.9         3.1          1.5         0.1
# ℹ 140 more rows

Demo

Split a column value into multiple columns

iris %>% 
    separate(Sepal.Length, c("Sepal.Length.unit", "Sepal.Length.decimal"), sep = "[.]") %>%
    select(c("Sepal.Length.unit", "Sepal.Length.decimal")) %>%
    as_tibble()

Warning: Expected 2 pieces. Missing pieces filled with `NA` in 17 rows [5, 8, 26, 27,
36, 41, 44, 50, 51, 61, 63, 79, 84, 86, 94, 120, 139].

# A tibble: 150 × 2
   Sepal.Length.unit Sepal.Length.decimal
   <chr>             <chr>               
 1 5                 1                   
 2 4                 9                   
 3 4                 7                   
 4 4                 6                   
 5 5                 <NA>                
 6 5                 4                   
 7 4                 6                   
 8 5                 <NA>                
 9 4                 4                   
10 4                 9                   
# ℹ 140 more rows

Demo

Combine multiple columns into a single value

iris %>% 
  mutate(ID = seq(1, nrow(iris))) %>% 
  unite("FlowerID", Species, ID, sep = "_") %>% 
  as_tibble()

# A tibble: 150 × 5
   Sepal.Length Sepal.Width Petal.Length Petal.Width FlowerID 
          <dbl>       <dbl>        <dbl>       <dbl> <chr>    
 1          5.1         3.5          1.4         0.2 setosa_1 
 2          4.9         3            1.4         0.2 setosa_2 
 3          4.7         3.2          1.3         0.2 setosa_3 
 4          4.6         3.1          1.5         0.2 setosa_4 
 5          5           3.6          1.4         0.2 setosa_5 
 6          5.4         3.9          1.7         0.4 setosa_6 
 7          4.6         3.4          1.4         0.3 setosa_7 
 8          5           3.4          1.5         0.2 setosa_8 
 9          4.4         2.9          1.4         0.2 setosa_9 
10          4.9         3.1          1.5         0.1 setosa_10
# ℹ 140 more rows
…
